^C:\USERS\GEO\DESKTOP\GAME PHYSICS\GITWORKSPACE\SIMULATORTESTER\PUBLICMASSSPRINGSYSTEMTESTS.CPP
C:\USERS\GEO\DESKTOP\GAME PHYSICS\GITWORKSPACE\SIMULATORTESTER\WIN32\DEBUG\VC140.PDB
C:\USERS\GEO\DESKTOP\GAME PHYSICS\GITWORKSPACE\SIMULATORTESTER\WIN32\DEBUG\VC140.IDB
C:\USERS\GEO\DESKTOP\GAME PHYSICS\GITWORKSPACE\SIMULATORTESTER\WIN32\DEBUG\PUBLICMASSSPRINGSYSTEMTESTS.OBJ
