^C:\Users\Geo\Desktop\Game Physics\GitWorkSpace\SimulatorTester\SimulatorTester_2015.vcxproj
C:\Users\Geo\Desktop\Game Physics\GitWorkSpace\Win32\Debug\MakeSpriteFont.exe
C:\Users\Geo\Desktop\Game Physics\GitWorkSpace\Win32\Debug\MakeSpriteFont.pdb
^C:\Users\Geo\Desktop\Game Physics\GitWorkSpace\SimulatorTester\SimulatorTester_2015.vcxproj
C:\Users\Geo\Desktop\Game Physics\GitWorkSpace\Win32\Debug\SimulationsTester.lib
C:\Users\Geo\Desktop\Game Physics\GitWorkSpace\Win32\Debug\SimulationsTester.exp
