^C:\USERS\GEO\DESKTOP\GAME PHYSICS\GITWORKSPACE\SIMULATIONS\MAIN.CPP
C:\USERS\GEO\DESKTOP\GAME PHYSICS\GITWORKSPACE\SIMULATIONSRUNNER\DEBUG\VC140.PDB
C:\USERS\GEO\DESKTOP\GAME PHYSICS\GITWORKSPACE\SIMULATIONSRUNNER\DEBUG\VC140.IDB
C:\USERS\GEO\DESKTOP\GAME PHYSICS\GITWORKSPACE\SIMULATIONSRUNNER\DEBUG\MAIN.OBJ
