^C:\USERS\GEO\DESKTOP\GAME PHYSICS\GITWORKSPACE\ANTTWEAKBAR\LIB\DEBUG\ANTTWEAKBAR.LIB|C:\USERS\GEO\DESKTOP\GAME PHYSICS\GITWORKSPACE\DIRECTXTK\BIN\DESKTOP_2015\WIN32\DEBUG\DIRECTXTK.LIB|C:\USERS\GEO\DESKTOP\GAME PHYSICS\GITWORKSPACE\DXUT11\CORE\BIN\DIRECTXTK_2015\WIN32\DEBUG\DXUT.LIB|C:\USERS\GEO\DESKTOP\GAME PHYSICS\GITWORKSPACE\DXUT11\OPTIONAL\BIN\DIRECTXTK_2015\WIN32\DEBUG\DXUTOPT.LIB|C:\USERS\GEO\DESKTOP\GAME PHYSICS\GITWORKSPACE\EFFECTS11\BIN\DESKTOP_2015\WIN32\DEBUG\EFFECTS11D.LIB|C:\USERS\GEO\DESKTOP\GAME PHYSICS\GITWORKSPACE\SIMULATIONSRUNNER\DEBUG\MAIN.OBJ|C:\USERS\GEO\DESKTOP\GAME PHYSICS\GITWORKSPACE\WIN32\DEBUG\SIMULATIONS.LIB
C:\USERS\GEO\DESKTOP\GAME PHYSICS\GITWORKSPACE\WIN32\DEBUG\SIMULATIONSRUNNER_2015.ILK
C:\USERS\GEO\DESKTOP\GAME PHYSICS\GITWORKSPACE\WIN32\DEBUG\SIMULATIONSRUNNER_2015.EXE
C:\USERS\GEO\DESKTOP\GAME PHYSICS\GITWORKSPACE\WIN32\DEBUG\SIMULATIONSRUNNER_2015.PDB
