^C:\USERS\GEO\DESKTOP\GAME PHYSICS\GITWORKSPACE\SIMULATIONS\MASSSPRINGSYSTEM.CPP
/c /I"C:\USERS\GEO\DESKTOP\GAME PHYSICS\GITWORKSPACE\DIRECTXTK/INC" /I"C:\USERS\GEO\DESKTOP\GAME PHYSICS\GITWORKSPACE\DXUT11/CORE" /I"C:\USERS\GEO\DESKTOP\GAME PHYSICS\GITWORKSPACE\DXUT11/OPTIONAL" /I"C:\USERS\GEO\DESKTOP\GAME PHYSICS\GITWORKSPACE\EFFECTS11/INC" /I"C:\USERS\GEO\DESKTOP\GAME PHYSICS\GITWORKSPACE\ANTTWEAKBAR/INCLUDE" /ZI /nologo /W3 /WX- /Od /Oy- /D WIN32 /D NOMINMAX /D _CONSOLE /D _DEBUG /D _UNICODE /D UNICODE /Gm /EHsc /RTC1 /MDd /GS /fp:precise /Zc:wchar_t /Zc:forScope /Zc:inline /Fo"WIN32\DEBUG\\" /Fd"WIN32\DEBUG\SIMULATIONS.PDB" /Gd /TP /analyze- C:\USERS\GEO\DESKTOP\GAME PHYSICS\GITWORKSPACE\SIMULATIONS\MASSSPRINGSYSTEM.CPP
^C:\USERS\GEO\DESKTOP\GAME PHYSICS\GITWORKSPACE\SIMULATIONS\MASSSPRINGSYSTEMSIMULATOR.CPP
/c /I"C:\USERS\GEO\DESKTOP\GAME PHYSICS\GITWORKSPACE\DIRECTXTK/INC" /I"C:\USERS\GEO\DESKTOP\GAME PHYSICS\GITWORKSPACE\DXUT11/CORE" /I"C:\USERS\GEO\DESKTOP\GAME PHYSICS\GITWORKSPACE\DXUT11/OPTIONAL" /I"C:\USERS\GEO\DESKTOP\GAME PHYSICS\GITWORKSPACE\EFFECTS11/INC" /I"C:\USERS\GEO\DESKTOP\GAME PHYSICS\GITWORKSPACE\ANTTWEAKBAR/INCLUDE" /ZI /nologo /W3 /WX- /Od /Oy- /D WIN32 /D NOMINMAX /D _CONSOLE /D _DEBUG /D _UNICODE /D UNICODE /Gm /EHsc /RTC1 /MDd /GS /fp:precise /Zc:wchar_t /Zc:forScope /Zc:inline /Fo"WIN32\DEBUG\\" /Fd"WIN32\DEBUG\SIMULATIONS.PDB" /Gd /TP /analyze- C:\USERS\GEO\DESKTOP\GAME PHYSICS\GITWORKSPACE\SIMULATIONS\MASSSPRINGSYSTEMSIMULATOR.CPP
^C:\USERS\GEO\DESKTOP\GAME PHYSICS\GITWORKSPACE\SIMULATIONS\RIGIDBODY.CPP
/c /I"C:\USERS\GEO\DESKTOP\GAME PHYSICS\GITWORKSPACE\DIRECTXTK/INC" /I"C:\USERS\GEO\DESKTOP\GAME PHYSICS\GITWORKSPACE\DXUT11/CORE" /I"C:\USERS\GEO\DESKTOP\GAME PHYSICS\GITWORKSPACE\DXUT11/OPTIONAL" /I"C:\USERS\GEO\DESKTOP\GAME PHYSICS\GITWORKSPACE\EFFECTS11/INC" /I"C:\USERS\GEO\DESKTOP\GAME PHYSICS\GITWORKSPACE\ANTTWEAKBAR/INCLUDE" /ZI /nologo /W3 /WX- /Od /Oy- /D WIN32 /D NOMINMAX /D _CONSOLE /D _DEBUG /D _UNICODE /D UNICODE /Gm /EHsc /RTC1 /MDd /GS /fp:precise /Zc:wchar_t /Zc:forScope /Zc:inline /Fo"WIN32\DEBUG\\" /Fd"WIN32\DEBUG\SIMULATIONS.PDB" /Gd /TP /analyze- C:\USERS\GEO\DESKTOP\GAME PHYSICS\GITWORKSPACE\SIMULATIONS\RIGIDBODY.CPP
^C:\USERS\GEO\DESKTOP\GAME PHYSICS\GITWORKSPACE\SIMULATIONS\RIGIDBODYSYSTEM.CPP
/c /I"C:\USERS\GEO\DESKTOP\GAME PHYSICS\GITWORKSPACE\DIRECTXTK/INC" /I"C:\USERS\GEO\DESKTOP\GAME PHYSICS\GITWORKSPACE\DXUT11/CORE" /I"C:\USERS\GEO\DESKTOP\GAME PHYSICS\GITWORKSPACE\DXUT11/OPTIONAL" /I"C:\USERS\GEO\DESKTOP\GAME PHYSICS\GITWORKSPACE\EFFECTS11/INC" /I"C:\USERS\GEO\DESKTOP\GAME PHYSICS\GITWORKSPACE\ANTTWEAKBAR/INCLUDE" /ZI /nologo /W3 /WX- /Od /Oy- /D WIN32 /D NOMINMAX /D _CONSOLE /D _DEBUG /D _UNICODE /D UNICODE /Gm /EHsc /RTC1 /MDd /GS /fp:precise /Zc:wchar_t /Zc:forScope /Zc:inline /Fo"WIN32\DEBUG\\" /Fd"WIN32\DEBUG\SIMULATIONS.PDB" /Gd /TP /analyze- C:\USERS\GEO\DESKTOP\GAME PHYSICS\GITWORKSPACE\SIMULATIONS\RIGIDBODYSYSTEM.CPP
^C:\USERS\GEO\DESKTOP\GAME PHYSICS\GITWORKSPACE\SIMULATIONS\RIGIDBODYSYSTEMSIMULATOR.CPP
/c /I"C:\USERS\GEO\DESKTOP\GAME PHYSICS\GITWORKSPACE\DIRECTXTK/INC" /I"C:\USERS\GEO\DESKTOP\GAME PHYSICS\GITWORKSPACE\DXUT11/CORE" /I"C:\USERS\GEO\DESKTOP\GAME PHYSICS\GITWORKSPACE\DXUT11/OPTIONAL" /I"C:\USERS\GEO\DESKTOP\GAME PHYSICS\GITWORKSPACE\EFFECTS11/INC" /I"C:\USERS\GEO\DESKTOP\GAME PHYSICS\GITWORKSPACE\ANTTWEAKBAR/INCLUDE" /ZI /nologo /W3 /WX- /Od /Oy- /D WIN32 /D NOMINMAX /D _CONSOLE /D _DEBUG /D _UNICODE /D UNICODE /Gm /EHsc /RTC1 /MDd /GS /fp:precise /Zc:wchar_t /Zc:forScope /Zc:inline /Fo"WIN32\DEBUG\\" /Fd"WIN32\DEBUG\SIMULATIONS.PDB" /Gd /TP /analyze- C:\USERS\GEO\DESKTOP\GAME PHYSICS\GITWORKSPACE\SIMULATIONS\RIGIDBODYSYSTEMSIMULATOR.CPP
^C:\USERS\GEO\DESKTOP\GAME PHYSICS\GITWORKSPACE\SIMULATIONS\TEMPLATESIMULATOR.CPP
/c /I"C:\USERS\GEO\DESKTOP\GAME PHYSICS\GITWORKSPACE\DIRECTXTK/INC" /I"C:\USERS\GEO\DESKTOP\GAME PHYSICS\GITWORKSPACE\DXUT11/CORE" /I"C:\USERS\GEO\DESKTOP\GAME PHYSICS\GITWORKSPACE\DXUT11/OPTIONAL" /I"C:\USERS\GEO\DESKTOP\GAME PHYSICS\GITWORKSPACE\EFFECTS11/INC" /I"C:\USERS\GEO\DESKTOP\GAME PHYSICS\GITWORKSPACE\ANTTWEAKBAR/INCLUDE" /ZI /nologo /W3 /WX- /Od /Oy- /D WIN32 /D NOMINMAX /D _CONSOLE /D _DEBUG /D _UNICODE /D UNICODE /Gm /EHsc /RTC1 /MDd /GS /fp:precise /Zc:wchar_t /Zc:forScope /Zc:inline /Fo"WIN32\DEBUG\\" /Fd"WIN32\DEBUG\SIMULATIONS.PDB" /Gd /TP /analyze- C:\USERS\GEO\DESKTOP\GAME PHYSICS\GITWORKSPACE\SIMULATIONS\TEMPLATESIMULATOR.CPP
^C:\USERS\GEO\DESKTOP\GAME PHYSICS\GITWORKSPACE\SIMULATIONS\UTIL\FFMPEG.CPP
/c /I"C:\USERS\GEO\DESKTOP\GAME PHYSICS\GITWORKSPACE\DIRECTXTK/INC" /I"C:\USERS\GEO\DESKTOP\GAME PHYSICS\GITWORKSPACE\DXUT11/CORE" /I"C:\USERS\GEO\DESKTOP\GAME PHYSICS\GITWORKSPACE\DXUT11/OPTIONAL" /I"C:\USERS\GEO\DESKTOP\GAME PHYSICS\GITWORKSPACE\EFFECTS11/INC" /I"C:\USERS\GEO\DESKTOP\GAME PHYSICS\GITWORKSPACE\ANTTWEAKBAR/INCLUDE" /ZI /nologo /W3 /WX- /Od /Oy- /D WIN32 /D NOMINMAX /D _CONSOLE /D _DEBUG /D _UNICODE /D UNICODE /Gm /EHsc /RTC1 /MDd /GS /fp:precise /Zc:wchar_t /Zc:forScope /Zc:inline /Fo"WIN32\DEBUG\\" /Fd"WIN32\DEBUG\SIMULATIONS.PDB" /Gd /TP /analyze- C:\USERS\GEO\DESKTOP\GAME PHYSICS\GITWORKSPACE\SIMULATIONS\UTIL\FFMPEG.CPP
^C:\USERS\GEO\DESKTOP\GAME PHYSICS\GITWORKSPACE\SIMULATIONS\UTIL\UTIL.CPP
/c /I"C:\USERS\GEO\DESKTOP\GAME PHYSICS\GITWORKSPACE\DIRECTXTK/INC" /I"C:\USERS\GEO\DESKTOP\GAME PHYSICS\GITWORKSPACE\DXUT11/CORE" /I"C:\USERS\GEO\DESKTOP\GAME PHYSICS\GITWORKSPACE\DXUT11/OPTIONAL" /I"C:\USERS\GEO\DESKTOP\GAME PHYSICS\GITWORKSPACE\EFFECTS11/INC" /I"C:\USERS\GEO\DESKTOP\GAME PHYSICS\GITWORKSPACE\ANTTWEAKBAR/INCLUDE" /ZI /nologo /W3 /WX- /Od /Oy- /D WIN32 /D NOMINMAX /D _CONSOLE /D _DEBUG /D _UNICODE /D UNICODE /Gm /EHsc /RTC1 /MDd /GS /fp:precise /Zc:wchar_t /Zc:forScope /Zc:inline /Fo"WIN32\DEBUG\\" /Fd"WIN32\DEBUG\SIMULATIONS.PDB" /Gd /TP /analyze- C:\USERS\GEO\DESKTOP\GAME PHYSICS\GITWORKSPACE\SIMULATIONS\UTIL\UTIL.CPP
