^C:\USERS\GEO\DESKTOP\GAME PHYSICS\GITWORKSPACE\SIMULATIONS\MASSSPRINGSYSTEM.CPP|C:\USERS\GEO\DESKTOP\GAME PHYSICS\GITWORKSPACE\SIMULATIONS\MASSSPRINGSYSTEMSIMULATOR.CPP|C:\USERS\GEO\DESKTOP\GAME PHYSICS\GITWORKSPACE\SIMULATIONS\RIGIDBODY.CPP|C:\USERS\GEO\DESKTOP\GAME PHYSICS\GITWORKSPACE\SIMULATIONS\RIGIDBODYSYSTEM.CPP|C:\USERS\GEO\DESKTOP\GAME PHYSICS\GITWORKSPACE\SIMULATIONS\RIGIDBODYSYSTEMSIMULATOR.CPP|C:\USERS\GEO\DESKTOP\GAME PHYSICS\GITWORKSPACE\SIMULATIONS\TEMPLATESIMULATOR.CPP|C:\USERS\GEO\DESKTOP\GAME PHYSICS\GITWORKSPACE\SIMULATIONS\UTIL\FFMPEG.CPP|C:\USERS\GEO\DESKTOP\GAME PHYSICS\GITWORKSPACE\SIMULATIONS\UTIL\UTIL.CPP
C:\USERS\GEO\DESKTOP\GAME PHYSICS\GITWORKSPACE\SIMULATIONS\WIN32\DEBUG\SIMULATIONS.PDB
C:\USERS\GEO\DESKTOP\GAME PHYSICS\GITWORKSPACE\SIMULATIONS\WIN32\DEBUG\SIMULATIONS.IDB
C:\USERS\GEO\DESKTOP\GAME PHYSICS\GITWORKSPACE\SIMULATIONS\WIN32\DEBUG\MASSSPRINGSYSTEM.OBJ
C:\USERS\GEO\DESKTOP\GAME PHYSICS\GITWORKSPACE\SIMULATIONS\WIN32\DEBUG\MASSSPRINGSYSTEMSIMULATOR.OBJ
C:\USERS\GEO\DESKTOP\GAME PHYSICS\GITWORKSPACE\SIMULATIONS\WIN32\DEBUG\RIGIDBODY.OBJ
C:\USERS\GEO\DESKTOP\GAME PHYSICS\GITWORKSPACE\SIMULATIONS\WIN32\DEBUG\RIGIDBODYSYSTEM.OBJ
C:\USERS\GEO\DESKTOP\GAME PHYSICS\GITWORKSPACE\SIMULATIONS\WIN32\DEBUG\RIGIDBODYSYSTEMSIMULATOR.OBJ
C:\USERS\GEO\DESKTOP\GAME PHYSICS\GITWORKSPACE\SIMULATIONS\WIN32\DEBUG\TEMPLATESIMULATOR.OBJ
C:\USERS\GEO\DESKTOP\GAME PHYSICS\GITWORKSPACE\SIMULATIONS\WIN32\DEBUG\FFMPEG.OBJ
C:\USERS\GEO\DESKTOP\GAME PHYSICS\GITWORKSPACE\SIMULATIONS\WIN32\DEBUG\UTIL.OBJ
^C:\USERS\GEO\DESKTOP\GAME PHYSICS\GITWORKSPACE\SIMULATIONS\MASSSPRINGSYSTEM.CPP
C:\USERS\GEO\DESKTOP\GAME PHYSICS\GITWORKSPACE\SIMULATIONS\WIN32\DEBUG\SIMULATIONS.PDB
^C:\USERS\GEO\DESKTOP\GAME PHYSICS\GITWORKSPACE\SIMULATIONS\MASSSPRINGSYSTEMSIMULATOR.CPP
C:\USERS\GEO\DESKTOP\GAME PHYSICS\GITWORKSPACE\SIMULATIONS\WIN32\DEBUG\SIMULATIONS.PDB
^C:\USERS\GEO\DESKTOP\GAME PHYSICS\GITWORKSPACE\SIMULATIONS\RIGIDBODY.CPP
C:\USERS\GEO\DESKTOP\GAME PHYSICS\GITWORKSPACE\SIMULATIONS\WIN32\DEBUG\SIMULATIONS.PDB
^C:\USERS\GEO\DESKTOP\GAME PHYSICS\GITWORKSPACE\SIMULATIONS\RIGIDBODYSYSTEM.CPP
C:\USERS\GEO\DESKTOP\GAME PHYSICS\GITWORKSPACE\SIMULATIONS\WIN32\DEBUG\SIMULATIONS.PDB
^C:\USERS\GEO\DESKTOP\GAME PHYSICS\GITWORKSPACE\SIMULATIONS\RIGIDBODYSYSTEMSIMULATOR.CPP
C:\USERS\GEO\DESKTOP\GAME PHYSICS\GITWORKSPACE\SIMULATIONS\WIN32\DEBUG\SIMULATIONS.PDB
^C:\USERS\GEO\DESKTOP\GAME PHYSICS\GITWORKSPACE\SIMULATIONS\TEMPLATESIMULATOR.CPP
C:\USERS\GEO\DESKTOP\GAME PHYSICS\GITWORKSPACE\SIMULATIONS\WIN32\DEBUG\SIMULATIONS.PDB
^C:\USERS\GEO\DESKTOP\GAME PHYSICS\GITWORKSPACE\SIMULATIONS\UTIL\FFMPEG.CPP
C:\USERS\GEO\DESKTOP\GAME PHYSICS\GITWORKSPACE\SIMULATIONS\WIN32\DEBUG\SIMULATIONS.PDB
^C:\USERS\GEO\DESKTOP\GAME PHYSICS\GITWORKSPACE\SIMULATIONS\UTIL\UTIL.CPP
C:\USERS\GEO\DESKTOP\GAME PHYSICS\GITWORKSPACE\SIMULATIONS\WIN32\DEBUG\SIMULATIONS.PDB
